,torturedPhrases,expectedPhrases
0,profound neural organization,deep neural network
1,fake neural,artificial neural 
2,counterfeit neural,artificial neural 
3,organization ambush,network attack
4,organization assault,network attack
5,colossal information,big data
6,information stockroom,data warehouse 
7,information distribution center,data warehouse
8,counterfeit consciousness,artificial intelligence
9,human-made consciousness,artificial intelligence
10,man-made consciousness,artificial intelligence
11,elite figuring,high performance computing
12,haze figuring,fog/mist/cloud computing
13,designs preparing unit,graphics processing unit 
14,focal preparing unit,central processing unit 
15,work process motor,workflow engine
16,facial acknowledgement,face recognition
17,facial acknowledgment,face recognition
18,discourse acknowledgement,voice recognition
19,discourse acknowledgment,voice recognition
20,square mistake, squared error
21,square blunder, squared error
22,squared mistake, squared error
23,squared blunder, squared error
24,mean outright mistake,absolute error
25,mean outright blunder,absolute error
26,mean supreme mistake,absolute error
27,mean supreme blunder,absolute error
28,motion to clamor,signal to noise
29,motion to commotion,signal to noise
30,flag to clamor,signal to noise
31,flag to commotion,signal to noise
32,flag to noise,signal to noise
33,indicator to clamor,signal to noise
34,indicator to commotion,signal to noise
35,indicator to noise,signal to noise
36,sign to clamor,signal to noise
37,sign to commotion,signal to noise
38,sign to noise,signal to noise
39,signal to clamor,signal to noise
40,signal to commotion,signal to noise
41,worldwide parameters,global parameters
42,irregular get right of passage to,random access
43,arbitrary get right of passage to,random access
44,arbitrary backwoods,random forest
45,arbitrary timberland,random forest
46,arbitrary lush territory,random forest
47,irregular backwoods,random forest
48,irregular timberland,random forest
49,irregular lush territory,random forest
50,arbitrary esteem,random value
51,irregular esteem,random value
52,subterranean insect state,ant colony
53,subterranean insect province,ant colony
54,subterranean insect area,ant colony
55,subterranean insect region,ant colony
56,subterranean insect settlement,ant colony
57,underground creepy crawly state,ant colony
58,underground creepy crawly province,ant colony
59,underground creepy crawly area,ant colony
60,underground creepy crawly region,ant colony
61,underground creepy crawly settlement,ant colony
62,leftover vitality,remaining energy
63,territorial normal vitality,local average energy
64,motor vitality,kinetic energy
65,credulous bayes,naive Bayes
66,innocent bayes,naive Bayes
67,gullible bayes,naive Bayes
68,sincere bayes,naive Bayes
69,credulous bayesian,naive Bayesian
70,innocent bayesian,naive Bayesian
71,gullible bayesian,naive Bayesian
72,sincere bayesian,naive Bayesian
73,individual computerized collaborator,personal digital assistant 
74,individual advanced partners,personal digital assistant 
75,surface unpleasantness,surface roughness
76,warmth move,heat transfer
77,uphold vector machine,support vector machine 
78,human-made brainpower,artificial intelligence
79,man-made brainpower,artificial intelligence
80,"fever, hack","fever, cough"
81,ghostly grouping,spectral clustering
82,ghostly bunching,spectral clustering
83,ghostly clustering,spectral clustering
84,ghastly grouping,spectral clustering
85,ghastly bunching,spectral clustering
86,ghastly clustering,spectral clustering
87,otherworldly grouping,spectral clustering
88,otherworldly bunching,spectral clustering
89,otherworldly clustering,spectral clustering
90,k-implies grouping,k-means clustering
91,k-implies bunching,k-means clustering
92,k-implies clustering,k-means clustering
93,computational liquid elements,computational fluid dynamics
94,corridor impact magnetic,Hall effect
95,corridor impact voltage,Hall effect
96,corridor impact sensor,Hall effect
97,peevish inside disorder,irritable bowels syndrome
98,peevish inside syndrome,irritable bowels syndrome
99,peevish inside condition,irritable bowels syndrome
100,peevish gut disorder,irritable bowels syndrome
101,peevish gut syndrome,irritable bowels syndrome
102,peevish gut condition,irritable bowels syndrome
103,peevish entrails disorder,irritable bowels syndrome
104,peevish entrails syndrome,irritable bowels syndrome
105,peevish entrails condition,irritable bowels syndrome
106,fractious inside disorder,irritable bowels syndrome
107,fractious inside syndrome,irritable bowels syndrome
108,fractious inside condition,irritable bowels syndrome
109,fractious gut disorder,irritable bowels syndrome
110,fractious gut syndrome,irritable bowels syndrome
111,fractious gut condition,irritable bowels syndrome
112,fractious entrails disorder,irritable bowels syndrome
113,fractious entrails syndrome,irritable bowels syndrome
114,fractious entrails condition,irritable bowels syndrome
115,touchy inside disorder,irritable bowels syndrome
116,touchy inside syndrome,irritable bowels syndrome
117,touchy inside condition,irritable bowels syndrome
118,touchy gut disorder,irritable bowels syndrome
119,touchy gut syndrome,irritable bowels syndrome
120,touchy gut condition,irritable bowels syndrome
121,touchy entrails disorder,irritable bowels syndrome
122,touchy entrails syndrome,irritable bowels syndrome
123,touchy entrails condition,irritable bowels syndrome
124,genuine esteemed,real-valued
125,bosom growth,breast cancer
126,bosom malignancy,breast cancer
127,bosom tumor,breast cancer
128,monetary misfortunes,financial damages
129,warmth exchange,heat transfer
130,rubbing welding,friction welding
131,gooey streams,viscous flows
132,electrically leading liquid,electrically conducting fluid
133,precarious stream,unsteady flow
134,normal language preparing,natural language processing
135,vitality utilize,energy use
136,vitality bills,energy bills
137,vitality efficiency,energy efficiency
138,populace thickness,population density
139,nucleic corrosive,nucleic acid
140,polymerase chain response,polymerase chain reaction
141,programming bundle,software package
142,p esteem,p value
143,warmth transfer,heat transfer
144,rubbing coefficient,friction coefficient
145,tempestuous stream,turbulent flow
146,kick the bucket cast,die cast
147,back proliferation,back propagation
148,hereditary calculation,genetic algorithm 
149,cross breed model,hybrid model
150,likelihood thickness,probability density
151,fluffy rationale,fuzzy logic
152,pernicious hub,malicious node
153,malignant hub,compromised node
154,malevolent hub,compromised node
155,bargained hub,compromised node
156,noxious hub,compromised node
157,versatile hub,mobile node
158,hub assault,node attack
159,man in the center,man-in-the middle 
160,middle of the road hub,intermediate node
161,learning revelation in databases,knowledge discovery in databases
162,learning disclosure in databases,knowledge discovery in databases
163,information revelation in databases,knowledge discovery in databases
164,information disclosure in databases,knowledge discovery in databases
165,electronic wellbeing records,electronic health records
166,rayleigh blurring,Rayleigh fading
167,rician blurring,Rician fading
168,kidney disappointment,kidney failure
169,systolic circulatory strain,systolic blood pressure
170,diastolic circulatory strain,diastolic blood pressure
171,profound neural system,deep neural network
172,vitality effective,energy efficient
173,vitality utilization,energy use
174,vitality productivity,energy efficiency
175,provocative middle people,inflammatory mediators
176,incendiary middle people,inflammatory mediators
177,extreme intense respiratory,severe acute respiratory
178,drug delivery frameworks,drug delivery systems
179,targeting and controlled discharge,targeted and controlled release
180,medication conveyance,drug delivery
181,little blood bead,tiny blood droplet
182,chest peril,breast cancer
183,ladies' ruins,women's deaths
184,roc twist,ROC curve
185,invulnerable framework,immune system
186,evade snag,avoid obstacle
187,big-time salary,high income
188,center pay gathering,middle income group
189,"independent old enough, sex or calling","irrespective of age, gender or profession"
190,under this audit,in this review
191,discharged under earth,released in the environment
192,sun oriented force,solar energy
193,goof rate,error rate
194,indistinguishable twins,identical twins
195,one year secluded,one year apart
196,conviction breaks,confidence intervals
197,debacle alleviation activities,disaster relief operations
198,sifted flag,filtered signal
199,self sorting out,self organizing
200,disarray network,confusion matrix
201,disarray lattice,confusion matrix
202,perplexity lattice,confusion matrix
203,bolster vector machine,support vector machine
204,back vector machine,support vector machine 
205,super vector machine,support vector machine 
206,help vector machine,support vector machine 
207,backing vector machine,support vector machine 
208,sustain vector machine,support vector machine 
209,encourage vector machine,support vector machine 
210,fortify vector machine,support vector machine 
211,assist vector machine,support vector machine 
212,aid vector machine,support vector machine 
213,reinforce vector machine,support vector machine 
214,keep up vector machine,support vector machine 
215,maintain vector machine,support vector machine 
216,support vector device,support vector machine 
217,support vector automaton,support vector machine 
218,support vector engine,support vector machine 
219,bear vector engine,support vector machine 
220,interminable kidney disease,Chronic Kidney Disease
221,unsuspecting bayes,naive Bayes
222,artless bayes,naive Bayes
223,unsophisticated bayes,naive Bayes
224,ingenuous bayes,naive Bayes
225,inexperienced bayes,naive Bayes
226,guileless bayes,naive Bayes
227,trusting bayes,naive Bayes
228,immature bayes,naive Bayes
229,ignorant bayes,naive Bayes
230,double straight classifier,binary linear classifier
231,substance based picture recuperation,Content-Based Image Retrieval
232,decidedly charged,positively charged
233,contrarily charged,negatively charged
234,affiliation rule mining,association rule mining
235,protein articulation,protein expression
236,general wellbeing authorities,public health officials
237,heterosexual structure of carbon,anisotropic structure of carbon
238,heterosexual photonic crystal,anisotropic photonic crystal
239,heterosexual electrode,straight electrode
240,heterosexual phosphorene,anisotropic phosphorene
241,warm solace,thermal comfort
242,vitality devouring,energy consuming
243,medical atoms,drug molecules
244,miniaturized scale permeable,microporous
245,discrete fu liye change,Discrete Fourier Transform
246,fast fu liye change,Fast Fourier Transform
247,discrete fu liye transform,Discrete Fourier Transform
248,fast fu liye transform,Fast Fourier Transform
249,discrete fourier change,Discrete Fourier Transform
250,fast fourier change,Fast Fourier Transform
251,caliber of administration,Quality of Service
252,fourth era (4g),fourth generation 
253,lopsided computerized supporter line,Asymmetric digital subscriber line 
254,advanced endorser line,High-bit-rate digital subscriber line 
255,rapid computerized supporter line,Very high-speed digital subscriber line  
256,field programmable entryway exhibit,field programmable gate array  
257,programmable rationale gadgets,field programmable gate array  
258,rationale cell cluster,Logic Cell Array 
259,configurable rationale squares,configurable logic block 
260,application particular incorporated circuits,Application specific integrated circuit 
261,non-observable pathway,non-line-of-sight 
262,visually impaired channel estimation,blind channel estimation
263,slice level precision,frame-level accuracy
264,mrna articulation,mRNA expression
265,sustenance security,food safety
266,extremely intense respiratory,severe acute respiratory
267,middle east respiratory disorder coronavirus,Middle East respiratory syndrome coronavirus
268,answerable for pneumonia,responsible for pneumonia
269,dishonestly negative,false negative
270,erroneously sure,false positive
271,respiratory plot,respiratory tract
272,human services conveyance,healthcare delivery
273,unequivocal innovation,decisive technology
274,affirmed recuperated passing,"confirmed, recovered and death "
275,affirmed recuperated demise,"confirmed, recovered and death "
276,affirmed recuperated passing,"confirmed, recovered and death "
277,mellow disease,mild disease
278,record house proprietors,account owners
279,compromising get-togethers,malicious parties
280,bargained accounts,compromised accounts
281,unending ailments,chronic diseases
282,least inhibitory focus,minimum inhibitory concentration
283,well-judged changes,rational modifications
284,full-scale phages,macrophages
285,flagging go-betweens,signalling mediator
286,nitric oxide benefactor,nitric oxide donor
287,flag-bearer rna,messenger RNA
288,flag-bearer mrna,messenger mRNA
289,differentially communicated qualities,differentially expressed genes
290,corrosive mine seepage,acidic mine drainage
291,unused britain,New England
292,attractive reverberation,magnetic resonance
293,calorific esteem,calorific value
294,figured tomography,computed tomography
295,registered tomography,computed tomography
296,processed tomography (ct),computed tomography
297,x-beam diffraction,X-ray diffraction
298,vitality dispersive,energy dispersive
299,quickening voltage,accelerating voltage
300,restricting vitality,binding energy
301,focal asia,Central Asial
302,fluffy set,fuzzy set
303,k-infers grouping,k-means clustering
304,k-infers bunching,k-means clustering
305,k-infers clustering,k-means clustering
306,fluffy induction,fuzzy logic
307,fluffy deduction,fuzzy logic
308,ddos assault,Distributed denial-of-service  attack
309,oxide earthenware,oxide ceramics
310,complex-esteemed gaussian,complex-valued Gaussian
311,misfortune pace,failure rate
312,initiation vitality,induction energy
313,arbitrary woodland,random forest
314,arbitrary woods,random forest
315,irregular woodland,random forest
316,twofold visually impaired,double blind
317,nourishment bundling,food packaging
318,stochastic segregation,stochastic separation
319,choice backwood,choice tree
320,proposal motor,recommendation engine
321,inquiry dialect,query language
322,reaction time to inquiry,query response time
323,data stockrooom,data warehouse 
324,proof of idea,proof of concept
325,illustrations preparing unit,graphics processing unit 
326,unused york,New York
327,joined together states,United States
328,steering convention,routing protocol
329,wellness esteem,fitness value
330,slant investigation,trend analysis
331,genuine tone of people towards a specific item,true attitude
332,dimensionality decrease,dimensionality reduction
333,supposition examination,hypothesis testing
334,regular language handling,natural language processing
335,district of intrigue,region of interest
336,locale of intrigue,region of interest
337,locale of enthusiasm,region of interest
338,area of enthusiasm,region of interest
339,area of intrigue,region of interest
340,redressed straight unit,"rectified linear unit, ReLU"
341,r2 worth,R2 value
342,r2 esteem,R2 value
343,investigation of fluctuation (anova),analysis of variance 
344,investigation of difference (anova),analysis of variance 
345,investigation of change (anova),analysis of variance 
346,examination of fluctuation (anova),analysis of variance 
347,examination of difference (anova),analysis of variance 
348,examination of change (anova),analysis of variance 
349,half breed user,hybrid user
350,half breed join,hybrid join
351,exactness esteem,accuracy value
352,fake fish swarm,artificial fish school 
353,enlarged reality,augmented reality
354,keen city,smart city
355,keen home,smart home
356,keen household,smart home
357,keen gadget,smart device
358,keen metering,smart metering
359,keen lighting,smart lighting
360,savvy metering,smart metering
361,savvy lighting,smart lighting
362,shrewd city,smart city
363,shrewd home,smart home
364,shrewd household,smart home
365,shrewd gadget,smart device
366,shrewd metering,smart metering
367,shrewd lighting,smart lighting
368,brilliant metering,smart metering
369,clever home,smart home
370,clever metering,smart metering
371,return misfortune,return loss
372,mind tumor,brain tumor
373,chi-rectangular,chi-squarred
374,state of the symbolization,state of the art
375,pack extension piece,Left/Right bundle branch block
376,livestock oil and pets fat,animal oil and fats
377,slanted attractive field,inclined magnetic field
378,warmth source,heat source
379,electrically directing,electrically conducting
380,ordinary to the plate,normal to the plate
381,gooey powers,viscous forces
382,earthy colored movement,Brown motion
383,diffusion enhanced imaging,diffusion weighted imaging
384,decomposing pressure,oxidative stress
385,world wellbeing organization,World Health Organization
386,mechanized tomography,computed tomography 
387,solitary day,single day 
388,ecologically cordial,ecologically friendly
389,versatile ad-hoc network,Mobile Ad-hoc Network 
390,randomized controlled preliminary,Randomized control trial 
391,reaction surface strategy,response surface methodology 
392,head part investigation,principal component analysis 
393,head part examination,principal component analysis 
394,particular worth deterioration,single value decomposition 
395,particular worth disintegration,single value decomposition 
396,particular worth decay,single value decomposition 
397,most pessimistic scenario execution time,worst-case execution time 
398,fluffy grouping,fuzzy clustering
399,home solace,home comfort
400,safe administration layer,secure sockets layer 
401,alzheimer's ailment,Alzheimer's disease
402,huntington's ailment,Huntington's disease
403,parkinson's ailment,Parkinson's disease
404,lyme's ailment,Lyme's disease
405,alzheimer's malady,Alzheimer's disease
406,huntington's malady,Huntington's disease
407,parkinson's malady,Parkinson's disease
408,lyme's malady,Lyme's disease
409,alzheimer's sickness,Alzheimer's disease
410,huntington's sickness,Huntington's disease
411,parkinson's sickness,Parkinson's disease
412,lyme's sickness,Lyme's disease
413,alzheimer's infection,Alzheimer's disease
414,huntington's infection,Huntington's disease
415,parkinson's infection,Parkinson's disease
416,self-ruling driving,autonomous driving
417,inclination plummet,gradient descent
418,decay of wavelet bundle,wavelet packet decomposition
419,center internal heat level,core body temperature
420,cardiovascular breakdown,heart failure
421,periphery course disorder,peripheral artery disease
422,respiratory disappointment,respiratory failure
423,computerized reasoning,artificial intelligence
424,snap stream data,click stream data
425,flexibly chain,supply chain
426,positron discharge tomography,positron emission tomography 
427,average worldly flap,median temporal lobe 
428,attractive asset imaging,magnetic resonance imaging 
429,flip-slump,flip-flop
430,worldwide situating framework,global positioning system 
431,moving normal (arima),Autoregressive integrated moving average 
432,bogus positive (fp),false positive
433,bogus negative (fn),false negative
434,server disappointment,server failure
435,common language preparing,natural language processing
436,sport hypothesis,game theory
437,genuine positive (tp),true positive
438,genuine negative (tn),true negative
439,kindhearted tumor,benign tumor
440,amiable tumor,benign tumor
441,fluffy c implies,fuzzy C-means
442,kind injuries,benign injuries
443,immature nations,developing countries
444,creating nations,developing countries
445,irregular forests (rf),random forests
446,calculated relapse,logistic regression
447,relapse tree,regression  tree
448,cryptic node,hidden node
449,cryptic layer,hidden layer
450,concealed layer,hidden layer
451,shrouded layer,hidden layer
452,inertial estimation unit,inertial measurement unit
453,hereditary programming,genetic programming 
454,hereditary algorithm,genetic algorithm 
455,tranquilizer conveyance,drug delivery
456,sedate conveyance,drug delivery
457,web scratching,web scraping
458,malevolent tumor,malignant tumor
459,commotion picture,noisy picture
460,individuals bite the dust,people die
461,directing convention,routing protocol
462,manufactured neural,artificial neural 
463,missing esteem,missing value
464,grown-up masses,adult population
465,fluffy strategy,fuzzy method
466,evacuation of noise,noise reduction
467,half-breed calculation,hybrid algorithm
468,cross-breed calculation,hybrid algorithm
469,incredible programming,extreme programming
470,principal part examination,principal component analysis 
471,principal part investigation,principal component analysis 
472,misfortune rate,failure rate
473,redox flagging,redox signaling
474,individuals kick the bucket,people die
475,mind waves,brain waves
476,mind-computer interface,brain-computer interface
477,mind-pc interface,brain-PC interface
478,convolutional neural system,convolutional neural network 
479,twofold tree,binary tree
480,collector working trademark,Receiver Operating Characteristic 
481,roundabout chamber,cylinder
482,highlight portrayal,feature representation
483,direct differential condition,linear differential equation
484,straight differential condition,linear differential equation
485,bundle flooding,packet flooding
486,concoction equation,chemical formula
487,concoction properties,chemical properties
488,concoction reusing,chemical recycling
489,concoction response,chemical reaction
490,as pursues,as follows
491,symphonious mean,harmonic mean
492,macular lump,macular edema
493,constitutional neural,convolutional neural 
494,binary grouping,binary classification
495,blunder rate,error rate
496,wavelet decay, wavelet transform 
497,molecule swarm,particule swarm
498,navigating under impact,driving under the influence
499,mishap casualties,accident victims
500,"logical growth phage""~5",logarithmic growth phase
501,"logistical growth phage""~5",logarithmic growth phase
502,back likelihood,posterior probability
503,preparation and approval sets,training and testing sets
504,lung knob,lung nodule
505,logical phage,logarithmic phase
506,conjugate inclination,conjugate gradient
507,electron magnifying lens,scanning electron microscope 
508,figuring asset,computing resources 
509,persistent kidney sickness,chronic kidney disease 
510,persistent kidney ailment,chronic kidney disease 
511,adolescent lymphocytes,immature lymphocytes
512,intense lymphocytic leukemia,acute lymphocytic leukemia
513,intense angle,acute angle
514,mass exchange wonder,mass transfer phenomenon
515,minimum mandatory vitality,minimum required energy
516,enactment vitality,activation energy
517,compound designing,chemical engineering
518,nourishment handling,food processing
519,parallel blend,binary mixture
520,temperamental regular convection,unsteady? natural convection
521,nth-arrange,nth order
522,synthetic response be that as it,chemical reaction
523,synthetic response on the off chance,chemical reaction
524,viewpoint proportion,aspect ratio
525,arbitrary strolls,random walks
526,irregular strolls,random walks
527,straight administrator as follows,linear opeerator
528,straight administrator equation,linear opeerator
529,partial administrator baleanu,fractional operator
530,partial administrator riemann,fractional operator
531,territory of intrigue,region of interest
532,maturing populace,ageing population
533,prescient quality,negative/positive predicted value 
534,impartial ph,neutral PH
535,platinum impetus,platinum catalyst
536,palatable execution,satisfactory performance
537,watson and cramp,Watson and Crick
538,variable attractive field,variable magnetic field
539,ravenous calculation,greedy algorithm
540,insatiable calculation,greedy algorithm
541,voracious calculation,greedy algorithm
542,ravenous algorithm,greedy algorithm
543,insatiable algorithm,greedy algorithm
544,voracious algorithm,greedy algorithm
